…
  df_list <- df_list[-which(sapply(df_list, is.null))]
  
  return(df_list)
}

# Test grab_all function
grab_all(all = TRUE, team = 'stars')
```

    ## $franchises
    ## # A tibble: 39 x 2
    ##    data$id $firstSeasonId $fullName            $lastSeasonId $mostRecentTeamId $teamAbbrev $teamCommonName $teamPlaceName total
    ##      <int>          <int> <chr>                        <int>             <int> <chr>       <chr>           <chr>          <int>
    ##  1       1       19171918 Montréal Canadiens              NA                 8 MTL         Canadiens       Montréal          39
    ##  2       2       19171918 Montreal Wanderers        19171918                41 MWN         Wanderers       Montreal          39
    ##  3       3       19171918 St. Louis Eagles          19341935                45 SLE         Eagles          St. Louis         39
    ##  4       4       19191920 Hamilton Tigers           19241925                37 HAM         Tigers          Hamilton          39
    ##  5       5       19171918 Toronto Maple Leafs             NA                10 TOR         Maple Leafs     Toronto           39
    ##  6       6       19241925 Boston Bruins                   NA                 6 BOS         Bruins          Boston            39
    ##  7       7       19241925 Montreal Maroons          19371938                43 MMR         Maroons         Montreal          39
    ##  8       8       19251926 Brooklyn Americans        19411942                51 BRK         Americans       Brooklyn          39
    ##  9       9       19251926 Philadelphia Quakers      19301931                39 QUA         Quakers         Philadelphia      39
    ## 10      10       19261927 New York Rangers                NA                 3 NYR         Rangers         New York          39
    ## # … with 29 more rows
    ## 
    ## $`team total`
    ## # A tibble: 105 x 2
    ##    data$id $activeFranchise $firstSeasonId $franchiseId $gameTypeId $gamesPlayed $goalsAgainst $goalsFor $homeLosses total
    ##      <int>            <int>          <int>        <int>       <int>        <int>         <int>     <int>       <int> <int>
    ##  1       1                1       19821983           23           2         2993          8902      8792         525   105
    ##  2       2                1       19821983           23           3          257           634       697          53   105
    ##  3       3                1       19721973           22           2         3788         11907     12045         678   105
    ##  4       4                1       19721973           22           3          309           897       983          53   105
    ##  5       5                1       19261927           10           2         6560         20020     20041        1143   105
    ##  6       6                1       19261927           10           3          518          1447      1404         104   105
    ##  7       7                1       19671968           16           3          449          1332      1335          97   105
    ##  8       8                1       19671968           16           2         4171         12255     13690         584   105
    ##  9       9                1       19671968           17           2         4171         14049     13874         683   105
    ## 10      10                1       19671968           17           3          391          1131      1190          85   105
    ## # … with 95 more rows
    ## 
    ## $`team data`
…
