…
  df_list <- df_list[-which(sapply(df_list, is.null))]
  
  return(df_list)
}

# Test grab_all function
grab_all(all = TRUE, team = 'stars')
```

    ## $franchises
    ## # A tibble: 39 x 2
    ##    data$id $firstSeasonId $fullName   $lastSeasonId $mostRecentTeam… $teamAbbrev
    ##      <int>          <int> <chr>               <int>            <int> <chr>      
    ##  1       1       19171918 Montréal C…            NA                8 MTL        
    ##  2       2       19171918 Montreal W…      19171918               41 MWN        
    ##  3       3       19171918 St. Louis …      19341935               45 SLE        
    ##  4       4       19191920 Hamilton T…      19241925               37 HAM        
    ##  5       5       19171918 Toronto Ma…            NA               10 TOR        
    ##  6       6       19241925 Boston Bru…            NA                6 BOS        
    ##  7       7       19241925 Montreal M…      19371938               43 MMR        
    ##  8       8       19251926 Brooklyn A…      19411942               51 BRK        
    ##  9       9       19251926 Philadelph…      19301931               39 QUA        
    ## 10      10       19261927 New York R…            NA                3 NYR        
    ## # … with 29 more rows, and 1 more variable: total <int>
    ## 
    ## $`team total`
    ## # A tibble: 105 x 2
    ##    data$id $activeFranchise $firstSeasonId $franchiseId $gameTypeId $gamesPlayed
    ##      <int>            <int>          <int>        <int>       <int>        <int>
    ##  1       1                1       19821983           23           2         2993
    ##  2       2                1       19821983           23           3          257
    ##  3       3                1       19721973           22           2         3788
    ##  4       4                1       19721973           22           3          310
    ##  5       5                1       19261927           10           2         6560
    ##  6       6                1       19261927           10           3          518
    ##  7       7                1       19671968           16           3          449
    ##  8       8                1       19671968           16           2         4171
    ##  9       9                1       19671968           17           2         4171
    ## 10      10                1       19671968           17           3          391
    ## # … with 95 more rows, and 1 more variable: total <int>
    ## 
    ## $`team data`
…
